<?xml version="1.0" encoding="iso-8859-1"?>
<!-- Generator: Adobe Illustrator 19.0.0, SVG Export Plug-In . SVG Version: 6.00 Build 0)  -->
<svg version="1.1" id="Layer_1" xmlns="http://www.w3.org/2000/svg" xmlns:xlink="http://www.w3.org/1999/xlink" x="0px" y="0px"
	 viewBox="0 0 512 512" style="enable-background:new 0 0 512 512;" xml:space="preserve" fill="#7A9066">
<g>
	<g>
		<path d="M496,187.502H16c-8.832,0-16,7.168-16,16c0,8.832,7.168,16,16,16h480c8.832,0,16-7.168,16-16
			C512,194.67,504.832,187.502,496,187.502z"/>
	</g>
</g>
<g>
	<g>
		<path d="M480.64,187.55c-8.784-0.56-16.464,6.032-17.088,14.832L446.72,440.574c-0.784,10.944-14.976,11.264-16.592,11.264H81.376
			c-1.616,0-15.808-0.32-16.592-11.264L47.952,207.31c-0.624-8.816-8.176-15.264-17.104-14.816
			c-8.816,0.64-15.456,8.288-14.816,17.104l16.832,233.248c1.696,23.76,22.096,40.992,48.512,40.992h348.752
			c26.416,0,46.816-17.232,48.512-40.992l16.832-238.208C496.096,195.822,489.456,188.174,480.64,187.55z"/>
	</g>
</g>
<g>
	<g>
		<path d="M256,243.838c-8.832,0-16,7.168-16,16v144c0,8.832,7.168,16,16,16c8.832,0,16-7.168,16-16v-144
			C272,251.006,264.832,243.838,256,243.838z"/>
	</g>
</g>
<g>
	<g>
		<path d="M192,243.838c-8.832,0-16,7.168-16,16v144c0,8.832,7.168,16,16,16c8.832,0,16-7.168,16-16v-144
			C208,251.006,200.832,243.838,192,243.838z"/>
	</g>
</g>
<g>
	<g>
		<path d="M128,243.838c-8.832,0-16,7.168-16,16v144c0,8.832,7.168,16,16,16c8.832,0,16-7.168,16-16v-144
			C144,251.006,136.832,243.838,128,243.838z"/>
	</g>
</g>
<g>
	<g>
		<path d="M384,243.838c-8.832,0-16,7.168-16,16v144c0,8.832,7.168,16,16,16c8.832,0,16-7.168,16-16v-144
			C400,251.006,392.832,243.838,384,243.838z"/>
	</g>
</g>
<g>
	<g>
		<path d="M320,243.838c-8.832,0-16,7.168-16,16v144c0,8.832,7.168,16,16,16c8.832,0,16-7.168,16-16v-144
			C336,251.006,328.832,243.838,320,243.838z"/>
	</g>
</g>
<g>
	<g>
		<path d="M229.504,29.006c-8.336-2.816-17.456,1.632-20.304,10l-54.288,159.328c-2.832,8.352,1.632,17.456,10,20.304
			c1.696,0.576,3.44,0.864,5.152,0.864c6.656,0,12.88-4.192,15.152-10.864L239.504,49.31
			C242.336,40.958,237.872,31.854,229.504,29.006z"/>
	</g>
</g>
<g>
	<g>
		<path d="M357.088,198.35L302.8,39.022c-2.848-8.368-11.968-12.816-20.304-10c-8.368,2.848-12.848,11.952-10,20.304l54.288,159.328
			c2.272,6.656,8.48,10.848,15.152,10.848c1.712,0,3.456-0.272,5.152-0.848C355.456,215.806,359.936,206.702,357.088,198.35z"/>
	</g>
</g>
<g>
</g>
<g>
</g>
<g>
</g>
<g>
</g>
<g>
</g>
<g>
</g>
<g>
</g>
<g>
</g>
<g>
</g>
<g>
</g>
<g>
</g>
<g>
</g>
<g>
</g>
<g>
</g>
<g>
</g>
</svg>
